<?xml version="1.0" encoding="UTF-8"?>
<svg width="134px" height="103px" viewBox="0 0 134 103" version="1.1" xmlns="http://www.w3.org/2000/svg" xmlns:xlink="http://www.w3.org/1999/xlink">
    <!-- Generator: sketchtool 64 (101010) - https://sketch.com -->
    <title>9A854461-0D75-4DBA-8074-A90E7FBFC425@3x</title>
    <desc>Created with sketchtool.</desc>
    <g id="Desktop" stroke="none" stroke-width="1" fill="none" fill-rule="evenodd">
        <g id="VIS-Web-Landing-Launch" transform="translate(-631.000000, -2592.000000)">
            <g id="02-Learn-Anywhere" transform="translate(94.000000, 2539.000000)">
                <g id="Online" transform="translate(536.000000, 12.000000)">
                    <g id="online-illustration" transform="translate(4.000000, 44.000000)">
                        <g>
                            <g id="Group-12" transform="translate(28.000000, 0.000000)">
                                <path d="M0,10.4 L100,10.4 L100,75.2 C100,80.9437614 95.3437614,85.6 89.6,85.6 L0,85.6 L0,85.6 L0,10.4 Z" id="Rectangle" fill="#FFFFFF"></path>
                                <rect id="Rectangle" fill="#C8C8C8" x="16" y="21.6" width="67.2" height="8.8"></rect>
                                <rect id="Rectangle" fill="#C8C8C8" x="16" y="37.6" width="67.2" height="4"></rect>
                                <g id="Group-10" transform="translate(16.000000, 53.600000)" fill="#C8C8C8">
                                    <rect id="Rectangle" x="0" y="0" width="36.8" height="4"></rect>
                                    <rect id="Rectangle" x="0" y="8.8" width="36.8" height="4"></rect>
                                    <rect id="Rectangle" x="0" y="17.6" width="36.8" height="4"></rect>
                                </g>
                                <g id="Group-11" transform="translate(69.600000, 52.000000)" stroke="#000000" stroke-width="3.2">
                                    <g id="Group-4">
                                        <polyline id="Path" fill="#C8C8C8" points="14.4 16 14.4 29.6 8.8 25.6 2.4 29.6 2.4 16"></polyline>
                                        <circle id="Oval" fill="#FFCB05" cx="8" cy="8" r="9.6"></circle>
                                    </g>
                                </g>
                                <path d="M79.2,0 L86.4,0 C93.9110726,-1.37976165e-15 100,6.0889274 100,13.6 L100,75.2 L100,75.2 C98.0788575,69.916858 93.0578393,66.4 87.4362401,66.4 L79.2,66.4 L79.2,66.4 L79.2,0 Z" id="Rectangle" fill="#C8C8C8"></path>
                                <path d="M100,76 L100,11.2 C100,5.0144108 94.9855892,2.41643938e-15 88.8,0 L79.2,0 L79.2,0 L79.2,11.2 L79.2,66.4 L90.4,66.4 C95.7019336,66.4 100,70.6980664 100,76 C100,81.3019336 95.7019336,85.6 90.4,85.6 L0.8,85.6 L0.8,10.4 L79.2,10.4" id="Path" stroke="#000000" stroke-width="4.8"></path>
                            </g>
                            <g id="Group-9" transform="translate(0.000000, 19.000000)">
                                <polygon id="Rectangle" fill="#FFCB05" points="0 22 39 0 78 22 78 75 39 53 0 75"></polygon>
                                <polyline id="Path-2" stroke="#000000" stroke-width="7" points="0 39 39 17 78 39"></polyline>
                                <polyline id="Path-2" stroke="#000000" stroke-width="7" points="0 57 39 35 78 57"></polyline>
                                <polygon id="Rectangle" stroke="#000000" stroke-width="6" points="0 22 39 0 78 22 78 75 39 53 0 75"></polygon>
                            </g>
                        </g>
                    </g>
                </g>
            </g>
        </g>
    </g>
</svg>